{
  "products": [
    {
      "id": 1,
      "name": "Iphone",
      "quantity": 4
    },
    {
      "id": 2,
      "name": "Samsung",
      "quantity": 3
    },
    {
      "quantity": "5",
      "name": "Redmi",
      "id": 3
    },
    {
      "quantity": "1",
      "name": "Onida",
      "id": 4
    }
  ]
}